{
    "parts": [
        {
            "name": "PWXEP",
            
            "client_hooks": {
                "postAceInit": "ep_pwxep/static/js/clientHooks:documentReady"
            },
            
            "hooks": {
              
                "handleMessage" : "ep_pwxep/serverHooks:handleMessage"
            }
        }
    ]
}